
______                              _   _               _                 _          _ 
| ___ \                            | | | |             | |               | |        (_)
| |_/ /___  _ __ ___   __ _ _ __   | |_| | ___  _ __ __| |_   _ _ __  ___| | ___   _ _ 
|    // _ \| '_ ` _ \ / _` | '_ \  |  _  |/ _ \| '__/ _` | | | | '_ \/ __| |/ / | | | |
| |\ \ (_) | | | | | | (_| | | | | | | | | (_) | | | (_| | |_| | | | \__ \   <| |_| | |
\_| \_\___/|_| |_| |_|\__,_|_| |_| \_| |_/\___/|_|  \__,_|\__, |_| |_|___/_|\_\\__, |_|
                                                           __/ |                __/ |  
                                                          |___/                |___/   
